<?xml version="1.0" standalone="no"?>
<!DOCTYPE svg PUBLIC "-//W3C//DTD SVG 20010904//EN"
 "http://www.w3.org/TR/2001/REC-SVG-20010904/DTD/svg10.dtd">
<svg version="1.0" xmlns="http://www.w3.org/2000/svg"
 width="512.000000pt" height="512.000000pt" viewBox="0 0 512.000000 512.000000"
 preserveAspectRatio="xMidYMid meet">
<metadata>
Created by potrace 1.11, written by Peter Selinger 2001-2013
</metadata>
<g transform="translate(0.000000,512.000000) scale(0.100000,-0.100000)"
fill="#000000" stroke="none">
<path d="M3328 4704 c-7 -6 -38 -12 -108 -18 -30 -3 -66 -8 -80 -10 -14 -3
-43 -7 -65 -10 -47 -7 -95 -15 -165 -30 -14 -3 -36 -8 -50 -11 -14 -3 -34 -7
-45 -9 -11 -2 -47 -11 -80 -20 -33 -9 -71 -19 -84 -22 -14 -3 -28 -7 -33 -10
-4 -3 -16 -7 -25 -9 -33 -6 -198 -67 -285 -105 -157 -67 -496 -268 -613 -362
-97 -78 -175 -149 -257 -232 -43 -44 -77 -83 -76 -88 2 -5 105 -47 228 -92
124 -46 257 -96 295 -111 39 -15 120 -46 180 -70 61 -23 119 -46 130 -50 11
-5 23 -7 28 -7 4 1 7 -2 7 -8 0 -6 3 -9 8 -8 9 2 40 -10 75 -28 15 -8 27 -13
27 -10 0 3 30 -9 68 -25 37 -17 76 -34 87 -38 11 -5 36 -16 55 -24 19 -8 96
-41 170 -72 74 -31 158 -67 185 -80 77 -35 131 -59 240 -108 264 -119 526
-243 842 -399 111 -55 205 -99 209 -98 4 1 10 -2 13 -8 3 -5 47 -29 96 -54
250 -124 401 -202 407 -212 4 -6 8 -7 8 -2 0 5 6 4 13 -2 6 -6 65 -38 131 -71
65 -33 123 -65 130 -70 6 -5 20 -11 31 -13 19 -3 19 3 20 150 1 176 11 157
-115 223 -36 19 -66 37 -68 42 -2 4 -8 7 -12 7 -13 0 -214 113 -218 122 -2 5
-10 8 -17 8 -7 0 -41 16 -75 35 -34 19 -66 35 -71 35 -5 0 -9 5 -9 10 0 6 -9
10 -20 10 -11 0 -20 4 -20 8 0 7 -59 34 -69 31 -2 0 -7 3 -10 8 -3 4 -28 19
-56 33 -27 14 -70 36 -95 51 -25 14 -49 27 -55 29 -5 1 -73 33 -150 70 -145
70 -271 129 -340 160 -22 10 -74 33 -115 52 -41 20 -82 37 -90 40 -37 13 165
71 325 92 150 21 391 28 420 13 13 -7 20 -6 23 2 2 6 8 9 13 6 4 -3 28 -8 51
-10 24 -3 58 -7 76 -10 17 -3 47 -7 65 -10 17 -3 64 -12 102 -21 39 -9 77 -17
85 -19 104 -23 324 -116 403 -169 21 -14 39 -26 41 -26 1 0 3 365 3 810 0 735
-2 810 -16 804 -15 -6 -85 -30 -121 -42 -8 -3 -22 -6 -30 -7 -8 -2 -26 -6 -39
-9 -97 -23 -546 -27 -546 -6 0 2 -35 8 -90 15 -22 3 -51 7 -65 9 -41 6 -132
18 -175 22 -22 2 -71 6 -110 10 -38 4 -96 7 -127 8 -32 1 -58 4 -58 7 0 4 -67
6 -150 6 -82 0 -147 -3 -145 -8 6 -9 -15 -7 -31 4 -6 3 -14 4 -16 1z"/>
<path d="M69 4178 c-6 -18 -4 -76 2 -72 5 3 5 -5 1 -18 -10 -28 -8 -205 2
-215 6 -6 156 -52 219 -68 10 -2 32 -9 50 -14 110 -36 259 -83 270 -85 6 -2
19 -6 27 -9 28 -11 225 -78 240 -82 8 -2 47 -15 87 -28 39 -14 74 -23 77 -19
3 3 6 0 6 -6 0 -7 10 -12 23 -12 13 0 27 -4 32 -9 10 -9 38 -15 61 -12 5 0 29
29 52 64 22 34 59 82 81 107 37 41 50 77 26 73 -6 -1 -16 3 -22 9 -7 6 -13 8
-13 5 0 -3 -17 1 -37 10 -40 17 -248 91 -273 98 -8 2 -48 15 -87 29 -40 14
-73 23 -73 20 0 -2 -18 5 -40 16 -22 11 -40 18 -40 15 0 -3 -15 1 -32 8 -18 8
-37 15 -43 17 -5 1 -14 4 -20 6 -40 13 -372 116 -380 118 -5 1 -28 8 -50 14
-22 6 -44 12 -50 13 -5 0 -17 4 -25 9 -17 8 -70 22 -71 18z"/>
<path d="M69 3548 c-5 -69 -3 -166 3 -162 4 3 4 -5 0 -18 -10 -29 -9 -79 3
-97 5 -10 4 -12 -3 -7 -7 4 -12 3 -12 -2 0 -8 25 -19 66 -27 6 -2 58 -17 115
-35 111 -34 135 -41 153 -45 6 -1 18 -5 26 -8 67 -25 143 -46 151 -42 5 4 9 2
9 -2 0 -5 21 -15 48 -23 26 -7 50 -14 55 -15 4 -2 8 -3 10 -4 1 -1 61 -21 132
-45 90 -30 129 -48 127 -58 -12 -43 -27 -146 -37 -238 l-4 -45 127 -43 c70
-24 136 -47 147 -52 11 -4 65 -23 120 -42 55 -18 102 -35 105 -38 3 -3 12 -6
20 -8 8 -1 24 -7 35 -12 11 -5 47 -18 80 -30 33 -11 67 -23 75 -27 8 -3 20 -7
25 -9 6 -2 39 -14 75 -27 206 -78 280 -106 308 -121 18 -9 33 -15 35 -14 1 2
21 -5 42 -14 22 -9 74 -30 116 -47 42 -17 90 -36 105 -42 16 -7 31 -13 34 -14
8 -3 63 -25 95 -39 16 -8 71 -30 120 -51 50 -21 113 -47 140 -60 28 -12 75
-32 105 -45 30 -12 88 -38 128 -56 41 -19 75 -34 77 -34 2 0 52 -23 112 -51
59 -27 117 -54 128 -59 77 -35 168 -76 215 -98 30 -15 57 -27 60 -27 3 -1 54
-24 113 -53 60 -29 112 -52 118 -52 5 0 9 -4 9 -10 0 -5 6 -10 13 -10 6 0 45
-16 84 -35 40 -19 77 -35 82 -35 5 0 11 -4 13 -8 2 -7 188 -102 208 -107 3 0
19 -8 35 -17 17 -8 111 -57 210 -108 291 -151 349 -181 365 -190 60 -37 246
-130 259 -130 9 0 12 3 6 8 -11 8 -15 62 -4 62 3 0 3 20 -1 45 -5 30 -3 45 4
45 7 0 7 3 1 8 -11 8 -15 62 -4 62 4 0 4 13 -1 29 -5 19 -5 31 2 33 13 5 -192
117 -492 269 -63 32 -120 63 -127 69 -7 5 -17 10 -23 10 -6 0 -27 10 -48 23
-33 21 -89 49 -102 52 -3 0 -21 9 -40 20 -68 37 -483 239 -625 305 -33 15 -99
46 -148 69 -48 22 -92 41 -97 41 -6 0 -10 4 -10 8 0 5 -6 9 -12 9 -7 0 -51 19
-98 41 -108 50 -144 66 -315 141 -167 74 -165 73 -235 104 -30 14 -89 39 -130
55 -41 17 -111 46 -155 65 -44 19 -82 35 -85 35 -4 1 -22 8 -95 37 -11 5 -23
7 -27 7 -5 -1 -8 2 -8 8 0 5 -11 10 -25 10 -14 0 -25 5 -25 10 0 6 -8 10 -18
10 -10 0 -22 3 -26 8 -4 4 -12 8 -17 8 -5 1 -11 3 -14 4 -3 1 -8 3 -12 4 -5 1
-26 10 -48 20 -22 10 -48 19 -57 21 -9 2 -25 8 -35 13 -10 6 -63 26 -118 47
-55 20 -133 50 -174 66 -40 16 -77 29 -81 29 -4 0 -25 8 -46 17 -22 9 -43 18
-49 19 -17 4 -189 65 -210 74 -11 5 -49 19 -85 30 -36 12 -72 24 -80 27 -8 4
-35 13 -60 22 -29 10 -44 21 -43 31 1 13 26 111 37 145 20 69 31 97 41 105 9
7 60 -7 169 -44 86 -31 161 -58 166 -61 6 -3 18 -8 27 -10 10 -2 32 -9 48 -16
17 -6 35 -13 40 -15 12 -3 319 -117 360 -134 17 -7 44 -19 62 -26 17 -8 35
-14 40 -14 4 0 56 -20 116 -45 59 -24 107 -41 107 -37 0 4 4 2 8 -4 8 -11 103
-50 115 -46 4 1 7 -2 7 -7 0 -5 15 -13 33 -16 17 -4 37 -11 42 -15 6 -4 53
-24 105 -46 52 -21 97 -41 100 -44 3 -3 12 -6 20 -8 8 -2 35 -12 60 -23 25
-11 54 -24 65 -29 79 -33 129 -55 250 -110 99 -45 120 -54 128 -52 4 1 7 -2 7
-8 0 -5 5 -10 11 -10 7 0 30 -9 53 -19 41 -20 136 -63 146 -66 9 -3 93 -42
190 -88 52 -24 127 -59 165 -77 106 -49 695 -342 823 -409 61 -32 112 -56 112
-53 0 4 4 2 8 -4 4 -6 63 -40 132 -75 69 -35 128 -68 132 -74 4 -5 8 -7 8 -3
0 4 23 -6 50 -22 28 -17 55 -30 59 -30 5 0 14 -7 21 -15 13 -15 35 -11 25 6
-4 5 0 9 7 9 8 0 9 3 3 8 -11 8 -15 62 -4 62 3 0 3 20 -1 45 -5 30 -3 45 4 45
7 0 7 3 1 8 -11 8 -15 62 -5 62 4 0 6 10 5 21 -1 22 -40 58 -62 59 -6 0 -13 3
-15 8 -1 4 -30 21 -63 37 -33 17 -123 64 -200 105 -77 40 -255 131 -395 202
-140 70 -260 133 -267 138 -7 6 -15 10 -20 10 -4 0 -62 27 -130 60 -145 71
-328 159 -398 190 -27 12 -97 45 -154 71 -57 27 -105 49 -107 49 -3 0 -170 77
-253 117 -30 15 -61 26 -68 26 -7 0 -13 5 -13 10 0 6 -3 7 -7 4 -3 -4 -11 -3
-17 2 -6 5 -65 32 -131 61 -66 28 -133 58 -150 65 -16 7 -109 45 -205 85 -96
40 -191 79 -210 87 -19 8 -44 19 -55 23 -47 20 -458 176 -555 212 -30 11 -64
24 -75 28 -28 12 -138 51 -150 53 -5 2 -16 6 -22 10 -7 5 -21 10 -30 12 -10 2
-43 12 -74 23 l-57 20 -40 -71 c-22 -40 -51 -97 -63 -127 -23 -55 -37 -73 -50
-64 -6 4 -223 81 -234 84 -3 0 -10 2 -17 5 -7 2 -71 22 -143 45 -71 23 -140
45 -153 51 -13 5 -27 7 -32 4 -5 -3 -10 -1 -12 4 -1 6 -14 12 -28 15 -14 3
-90 25 -170 50 -163 51 -160 51 -161 34z"/>
<path d="M66 2932 c-2 -4 -4 -73 -5 -154 l-1 -147 73 -21 c39 -12 81 -25 92
-30 26 -10 165 -52 179 -54 6 -1 16 -4 21 -7 10 -6 53 -18 68 -18 4 -1 23 -7
42 -15 20 -9 36 -15 38 -15 1 0 15 -4 30 -10 16 -6 31 -11 35 -11 21 0 259
-83 271 -95 7 -7 15 -35 18 -61 2 -27 11 -78 19 -113 8 -35 12 -66 9 -69 -3
-3 0 -11 5 -18 6 -6 12 -20 14 -31 7 -32 54 -166 77 -218 12 -27 23 -52 24
-55 0 -3 10 -23 21 -45 129 -258 352 -516 607 -702 40 -29 77 -56 82 -61 57
-46 305 -179 450 -242 66 -28 129 -56 140 -60 56 -25 305 -102 370 -114 6 -1
15 -5 21 -9 7 -4 28 -8 48 -9 20 -2 36 -6 36 -9 0 -6 35 -13 110 -24 14 -1 25
-4 25 -5 0 -2 9 -4 20 -6 63 -9 93 -14 115 -20 14 -3 36 -7 50 -9 14 -1 45 -6
70 -10 69 -11 196 -24 305 -30 33 -2 60 -4 60 -5 0 -1 25 -2 55 -3 30 -2 61
-7 69 -11 10 -6 12 -5 7 2 -9 14 -5 15 27 3 13 -5 30 -5 37 -1 8 5 19 6 24 2
16 -9 138 -9 158 0 10 5 19 4 23 -2 3 -5 11 -10 16 -10 6 0 8 3 6 8 -3 4 20 7
51 8 56 1 133 8 202 19 98 15 160 18 325 18 162 0 227 -4 320 -19 17 -3 44 -7
62 -10 18 -2 38 -5 45 -6 7 -2 12 3 11 10 -2 6 1 12 6 12 4 0 5 18 1 40 -4 24
-3 41 3 43 16 5 -8 19 -342 194 -35 18 -70 38 -78 44 -7 6 -13 8 -13 4 0 -3
-15 2 -33 13 -17 11 -106 58 -197 104 -91 46 -166 86 -168 91 -2 4 -8 7 -13 7
-5 0 -116 52 -247 116 -211 103 -419 202 -582 276 -83 38 -179 82 -235 109
-27 12 -52 23 -55 24 -9 3 -154 66 -205 90 -16 7 -46 20 -65 28 -19 8 -56 24
-82 36 -26 12 -49 21 -52 21 -3 0 -29 11 -58 24 -30 14 -78 34 -107 46 -30 11
-73 29 -95 39 -87 40 -611 245 -611 240 0 -2 -13 4 -30 13 -16 9 -106 44 -200
78 -93 34 -192 70 -220 80 -27 10 -104 37 -170 60 -66 23 -129 45 -140 50 -33
14 -130 44 -136 43 -6 -2 -10 47 -13 149 0 32 -5 58 -9 58 -5 0 -5 5 -1 11 12
20 12 88 0 97 -6 5 -60 23 -121 42 -60 18 -117 37 -125 40 -8 4 -46 17 -85 28
-38 12 -113 35 -165 51 -179 54 -238 72 -256 75 -11 3 -31 9 -46 15 -15 6 -29
7 -32 3z"/>
</g>
</svg>
